﻿{
   "src":{
      "mqtt_topic":"domoticz/in",
      "clauses":[
         {
            "path":"id",
            "operation":"==",
            "value":"00014061"
         }
      ],
      "op_clause":[
         {
            "clausea":0,
            "operation":"and",
            "clauseb":1
         },
         {
            "clausea":1,
            "operation":"and",
            "clauseb":2
         }
      ]
   },
   "dst":{
      "mqtt_topic":"iot/out",
      "actions":[
         {
            "action":"calcvalue",
            "srcfieldvalue":"{nvalue}",
            "dstfieldname":"state"
         },
         {
            "action":"insertfield",
            "fieldname":"name",
            "fieldvalue":"IOT10241294"
         },
         {
            "action":"insertfield",
            "fieldname":"object",
            "fieldvalue":"pinout"
         },
         {
            "action":"insertfield",
            "fieldname":"index",
            "fieldvalue":0
         }
      ]
   }
}
