﻿{
   "src":{
      "mqtt_topic":"iot/out",
      "clauses":[
         {
            "path":"name",
            "operation":"==",
            "value":"IOT10241268"
         },
         {
            "path":"object",
            "operation":"==",
            "value":"pinout"
         },
         {
            "path":"index",
            "operation":"==",
            "value":0
         }
      ],
      "op_clause":[
         {
            "clausea":0,
            "operation":"and",
            "clauseb":1
         },
         {
            "clausea":1,
            "operation":"and",
            "clauseb":2
         }
      ]
   },
   "dst":{
      "mqtt_topic":"domoticz/in",
      "actions":[
         {
            "action":"insertfield",
            "fieldname":"ID",
            "fieldvalue":"1405D"
         },
         {
            "action":"copyfield",
            "srcfieldname":"humidity",
            "dstfieldname":"Humidity"
         },
         {
            "action":"copyfield",
            "srcfieldname":"temp",
            "dstfieldname":"Temp"
         }
      ]
   }
}